<?xml version="1.0" encoding="UTF-8" standalone="no"?>
<svg
   xmlns:dc="http://purl.org/dc/elements/1.1/"
   xmlns:cc="http://creativecommons.org/ns#"
   xmlns:rdf="http://www.w3.org/1999/02/22-rdf-syntax-ns#"
   xmlns:svg="http://www.w3.org/2000/svg"
   xmlns="http://www.w3.org/2000/svg"
   xmlns:sodipodi="http://sodipodi.sourceforge.net/DTD/sodipodi-0.dtd"
   xmlns:inkscape="http://www.inkscape.org/namespaces/inkscape"
   width="54.539356mm"
   height="47.776905mm"
   viewBox="0 0 54.539356 47.776905"
   version="1.1"
   id="svg8"
   inkscape:version="1.0.1 (3bc2e813f5, 2020-09-07)"
   sodipodi:docname="logo.svg">
  <defs
     id="defs2">
    <clipPath
       clipPathUnits="userSpaceOnUse"
       id="clipPath945">
      <path
         style="fill:#25a29c;fill-opacity:1;stroke:none;stroke-width:0.264583px;stroke-linecap:butt;stroke-linejoin:miter;stroke-opacity:1"
         d="m 56.885417,119.0625 7.9375,-7.9375 V 87.3125 H 39.6875 v 23.8125 h 9.260417 l 7.9375,7.9375"
         id="path947"
         sodipodi:nodetypes="ccccccc" />
    </clipPath>
    <clipPath
       clipPathUnits="userSpaceOnUse"
       id="clipPath1123">
      <circle
         style="opacity:1;fill:#25a29c;fill-opacity:1;stroke:none;stroke-width:1.165;stroke-miterlimit:4;stroke-dasharray:none"
         id="circle1125"
         cx="56.885418"
         cy="119.0625"
         r="17.859375" />
    </clipPath>
  </defs>
  <sodipodi:namedview
     id="base"
     pagecolor="#ffffff"
     bordercolor="#666666"
     borderopacity="1.0"
     inkscape:pageopacity="0.0"
     inkscape:pageshadow="2"
     inkscape:zoom="0.7"
     inkscape:cx="79.220466"
     inkscape:cy="144.36317"
     inkscape:document-units="mm"
     inkscape:current-layer="text1131"
     inkscape:document-rotation="0"
     showgrid="false"
     inkscape:window-width="1920"
     inkscape:window-height="1024"
     inkscape:window-x="0"
     inkscape:window-y="28"
     inkscape:window-maximized="1"
     fit-margin-top="0"
     fit-margin-left="0"
     fit-margin-right="0"
     fit-margin-bottom="0">
    <inkscape:grid
       type="xygrid"
       id="grid833"
       originx="24.905735"
       originy="-101.20312" />
  </sodipodi:namedview>
  <metadata
     id="metadata5">
    <rdf:RDF>
      <cc:Work
         rdf:about="">
        <dc:format>image/svg+xml</dc:format>
        <dc:type
           rdf:resource="http://purl.org/dc/dcmitype/StillImage" />
        <dc:title />
      </cc:Work>
    </rdf:RDF>
  </metadata>
  <g
     inkscape:label="Layer 1"
     inkscape:groupmode="layer"
     id="layer1"
     transform="translate(24.905734,-101.20313)">
    <g
       id="g1103"
       clip-path="url(#clipPath1123)"
       transform="translate(-54.521474)">
      <g
         id="g879"
         clip-path="url(#clipPath945)">
        <path
           style="fill:none;stroke:#000000;stroke-width:0.951218;stroke-linecap:butt;stroke-linejoin:miter;stroke-miterlimit:4;stroke-dasharray:none;stroke-opacity:1"
           d="m 42.333333,87.3125 v 31.75"
           id="path835" />
        <path
           style="fill:none;stroke:#000000;stroke-width:0.951218;stroke-linecap:butt;stroke-linejoin:miter;stroke-miterlimit:4;stroke-dasharray:none;stroke-opacity:1"
           d="m 42.333333,87.3125 v 31.75"
           id="path837" />
        <path
           style="fill:none;stroke:#000000;stroke-width:0.951218;stroke-linecap:butt;stroke-linejoin:miter;stroke-miterlimit:4;stroke-dasharray:none;stroke-opacity:1"
           d="m 44.979167,87.3125 v 31.75"
           id="path839" />
        <path
           style="fill:none;stroke:#000000;stroke-width:0.951218;stroke-linecap:butt;stroke-linejoin:miter;stroke-miterlimit:4;stroke-dasharray:none;stroke-opacity:1"
           d="m 47.625,87.3125 v 31.75"
           id="path841" />
        <path
           style="fill:none;stroke:#000000;stroke-width:0.951218;stroke-linecap:butt;stroke-linejoin:miter;stroke-miterlimit:4;stroke-dasharray:none;stroke-opacity:1"
           d="m 50.270833,87.3125 v 31.75"
           id="path843" />
        <path
           style="fill:none;stroke:#000000;stroke-width:0.951218;stroke-linecap:butt;stroke-linejoin:miter;stroke-miterlimit:4;stroke-dasharray:none;stroke-opacity:1"
           d="m 52.916667,87.3125 v 31.75"
           id="path845" />
        <path
           style="fill:none;stroke:#000000;stroke-width:0.951218;stroke-linecap:butt;stroke-linejoin:miter;stroke-miterlimit:4;stroke-dasharray:none;stroke-opacity:1"
           d="m 55.5625,87.3125 v 31.75"
           id="path847" />
        <path
           style="fill:none;stroke:#000000;stroke-width:0.951218;stroke-linecap:butt;stroke-linejoin:miter;stroke-miterlimit:4;stroke-dasharray:none;stroke-opacity:1"
           d="m 58.208333,87.3125 v 31.75"
           id="path849" />
        <path
           style="fill:none;stroke:#000000;stroke-width:0.951218;stroke-linecap:butt;stroke-linejoin:miter;stroke-miterlimit:4;stroke-dasharray:none;stroke-opacity:1"
           d="m 58.208333,87.3125 v 31.75"
           id="path851" />
        <path
           style="fill:none;stroke:#000000;stroke-width:0.951218;stroke-linecap:butt;stroke-linejoin:miter;stroke-miterlimit:4;stroke-dasharray:none;stroke-opacity:1"
           d="m 60.854167,87.3125 v 31.75"
           id="path853" />
        <path
           style="fill:none;stroke:#000000;stroke-width:0.951218;stroke-linecap:butt;stroke-linejoin:miter;stroke-miterlimit:4;stroke-dasharray:none;stroke-opacity:1"
           d="m 63.5,87.3125 v 31.75"
           id="path855" />
        <path
           style="fill:none;stroke:#000000;stroke-width:0.951218;stroke-linecap:butt;stroke-linejoin:miter;stroke-miterlimit:4;stroke-dasharray:none;stroke-opacity:1"
           d="m 66.145833,87.3125 v 31.75"
           id="path857" />
        <path
           style="fill:none;stroke:#000000;stroke-width:0.951218;stroke-linecap:butt;stroke-linejoin:miter;stroke-miterlimit:4;stroke-dasharray:none;stroke-opacity:1"
           d="m 68.791667,87.3125 v 31.75"
           id="path859" />
        <path
           style="fill:none;stroke:#000000;stroke-width:0.951218;stroke-linecap:butt;stroke-linejoin:miter;stroke-miterlimit:4;stroke-dasharray:none;stroke-opacity:1"
           d="m 71.4375,87.3125 v 31.75"
           id="path861" />
      </g>
      <g
         id="g977"
         clip-path="url(#clipPath945)"
         transform="rotate(-90,56.885417,119.0625)">
        <path
           style="fill:none;stroke:#000000;stroke-width:0.951218;stroke-linecap:butt;stroke-linejoin:miter;stroke-miterlimit:4;stroke-dasharray:none;stroke-opacity:1"
           d="m 42.333333,87.3125 v 31.75"
           id="path949" />
        <path
           style="fill:none;stroke:#000000;stroke-width:0.951218;stroke-linecap:butt;stroke-linejoin:miter;stroke-miterlimit:4;stroke-dasharray:none;stroke-opacity:1"
           d="m 42.333333,87.3125 v 31.75"
           id="path951" />
        <path
           style="fill:none;stroke:#000000;stroke-width:0.951218;stroke-linecap:butt;stroke-linejoin:miter;stroke-miterlimit:4;stroke-dasharray:none;stroke-opacity:1"
           d="m 44.979167,87.3125 v 31.75"
           id="path953" />
        <path
           style="fill:none;stroke:#000000;stroke-width:0.951218;stroke-linecap:butt;stroke-linejoin:miter;stroke-miterlimit:4;stroke-dasharray:none;stroke-opacity:1"
           d="m 47.625,87.3125 v 31.75"
           id="path955" />
        <path
           style="fill:none;stroke:#000000;stroke-width:0.951218;stroke-linecap:butt;stroke-linejoin:miter;stroke-miterlimit:4;stroke-dasharray:none;stroke-opacity:1"
           d="m 50.270833,87.3125 v 31.75"
           id="path957" />
        <path
           style="fill:none;stroke:#000000;stroke-width:0.951218;stroke-linecap:butt;stroke-linejoin:miter;stroke-miterlimit:4;stroke-dasharray:none;stroke-opacity:1"
           d="m 52.916667,87.3125 v 31.75"
           id="path959" />
        <path
           style="fill:none;stroke:#000000;stroke-width:0.951218;stroke-linecap:butt;stroke-linejoin:miter;stroke-miterlimit:4;stroke-dasharray:none;stroke-opacity:1"
           d="m 55.5625,87.3125 v 31.75"
           id="path961" />
        <path
           style="fill:none;stroke:#000000;stroke-width:0.951218;stroke-linecap:butt;stroke-linejoin:miter;stroke-miterlimit:4;stroke-dasharray:none;stroke-opacity:1"
           d="m 58.208333,87.3125 v 31.75"
           id="path963" />
        <path
           style="fill:none;stroke:#000000;stroke-width:0.951218;stroke-linecap:butt;stroke-linejoin:miter;stroke-miterlimit:4;stroke-dasharray:none;stroke-opacity:1"
           d="m 58.208333,87.3125 v 31.75"
           id="path965" />
        <path
           style="fill:none;stroke:#000000;stroke-width:0.951218;stroke-linecap:butt;stroke-linejoin:miter;stroke-miterlimit:4;stroke-dasharray:none;stroke-opacity:1"
           d="m 60.854167,87.3125 v 31.75"
           id="path967" />
        <path
           style="fill:none;stroke:#000000;stroke-width:0.951218;stroke-linecap:butt;stroke-linejoin:miter;stroke-miterlimit:4;stroke-dasharray:none;stroke-opacity:1"
           d="m 63.5,87.3125 v 31.75"
           id="path969" />
        <path
           style="fill:none;stroke:#000000;stroke-width:0.951218;stroke-linecap:butt;stroke-linejoin:miter;stroke-miterlimit:4;stroke-dasharray:none;stroke-opacity:1"
           d="m 66.145833,87.3125 v 31.75"
           id="path971" />
        <path
           style="fill:none;stroke:#000000;stroke-width:0.951218;stroke-linecap:butt;stroke-linejoin:miter;stroke-miterlimit:4;stroke-dasharray:none;stroke-opacity:1"
           d="m 68.791667,87.3125 v 31.75"
           id="path973" />
        <path
           style="fill:none;stroke:#000000;stroke-width:0.951218;stroke-linecap:butt;stroke-linejoin:miter;stroke-miterlimit:4;stroke-dasharray:none;stroke-opacity:1"
           d="m 71.4375,87.3125 v 31.75"
           id="path975" />
      </g>
      <g
         id="g1007"
         clip-path="url(#clipPath945)"
         transform="rotate(180,56.885417,119.0625)">
        <path
           style="fill:none;stroke:#000000;stroke-width:0.951218;stroke-linecap:butt;stroke-linejoin:miter;stroke-miterlimit:4;stroke-dasharray:none;stroke-opacity:1"
           d="m 42.333333,87.3125 v 31.75"
           id="path979" />
        <path
           style="fill:none;stroke:#000000;stroke-width:0.951218;stroke-linecap:butt;stroke-linejoin:miter;stroke-miterlimit:4;stroke-dasharray:none;stroke-opacity:1"
           d="m 42.333333,87.3125 v 31.75"
           id="path981" />
        <path
           style="fill:none;stroke:#000000;stroke-width:0.951218;stroke-linecap:butt;stroke-linejoin:miter;stroke-miterlimit:4;stroke-dasharray:none;stroke-opacity:1"
           d="m 44.979167,87.3125 v 31.75"
           id="path983" />
        <path
           style="fill:none;stroke:#000000;stroke-width:0.951218;stroke-linecap:butt;stroke-linejoin:miter;stroke-miterlimit:4;stroke-dasharray:none;stroke-opacity:1"
           d="m 47.625,87.3125 v 31.75"
           id="path985" />
        <path
           style="fill:none;stroke:#000000;stroke-width:0.951218;stroke-linecap:butt;stroke-linejoin:miter;stroke-miterlimit:4;stroke-dasharray:none;stroke-opacity:1"
           d="m 50.270833,87.3125 v 31.75"
           id="path987" />
        <path
           style="fill:none;stroke:#000000;stroke-width:0.951218;stroke-linecap:butt;stroke-linejoin:miter;stroke-miterlimit:4;stroke-dasharray:none;stroke-opacity:1"
           d="m 52.916667,87.3125 v 31.75"
           id="path989" />
        <path
           style="fill:none;stroke:#000000;stroke-width:0.951218;stroke-linecap:butt;stroke-linejoin:miter;stroke-miterlimit:4;stroke-dasharray:none;stroke-opacity:1"
           d="m 55.5625,87.3125 v 31.75"
           id="path991" />
        <path
           style="fill:none;stroke:#000000;stroke-width:0.951218;stroke-linecap:butt;stroke-linejoin:miter;stroke-miterlimit:4;stroke-dasharray:none;stroke-opacity:1"
           d="m 58.208333,87.3125 v 31.75"
           id="path993" />
        <path
           style="fill:none;stroke:#000000;stroke-width:0.951218;stroke-linecap:butt;stroke-linejoin:miter;stroke-miterlimit:4;stroke-dasharray:none;stroke-opacity:1"
           d="m 58.208333,87.3125 v 31.75"
           id="path995" />
        <path
           style="fill:none;stroke:#000000;stroke-width:0.951218;stroke-linecap:butt;stroke-linejoin:miter;stroke-miterlimit:4;stroke-dasharray:none;stroke-opacity:1"
           d="m 60.854167,87.3125 v 31.75"
           id="path997" />
        <path
           style="fill:none;stroke:#000000;stroke-width:0.951218;stroke-linecap:butt;stroke-linejoin:miter;stroke-miterlimit:4;stroke-dasharray:none;stroke-opacity:1"
           d="m 63.5,87.3125 v 31.75"
           id="path999" />
        <path
           style="fill:none;stroke:#000000;stroke-width:0.951218;stroke-linecap:butt;stroke-linejoin:miter;stroke-miterlimit:4;stroke-dasharray:none;stroke-opacity:1"
           d="m 66.145833,87.3125 v 31.75"
           id="path1001" />
        <path
           style="fill:none;stroke:#000000;stroke-width:0.951218;stroke-linecap:butt;stroke-linejoin:miter;stroke-miterlimit:4;stroke-dasharray:none;stroke-opacity:1"
           d="m 68.791667,87.3125 v 31.75"
           id="path1003" />
        <path
           style="fill:none;stroke:#000000;stroke-width:0.951218;stroke-linecap:butt;stroke-linejoin:miter;stroke-miterlimit:4;stroke-dasharray:none;stroke-opacity:1"
           d="m 71.4375,87.3125 v 31.75"
           id="path1005" />
      </g>
      <g
         id="g1037"
         clip-path="url(#clipPath945)"
         transform="rotate(90,56.885416,119.0625)">
        <path
           style="fill:none;stroke:#000000;stroke-width:0.951218;stroke-linecap:butt;stroke-linejoin:miter;stroke-miterlimit:4;stroke-dasharray:none;stroke-opacity:1"
           d="m 42.333333,87.3125 v 31.75"
           id="path1009" />
        <path
           style="fill:none;stroke:#000000;stroke-width:0.951218;stroke-linecap:butt;stroke-linejoin:miter;stroke-miterlimit:4;stroke-dasharray:none;stroke-opacity:1"
           d="m 42.333333,87.3125 v 31.75"
           id="path1011" />
        <path
           style="fill:none;stroke:#000000;stroke-width:0.951218;stroke-linecap:butt;stroke-linejoin:miter;stroke-miterlimit:4;stroke-dasharray:none;stroke-opacity:1"
           d="m 44.979167,87.3125 v 31.75"
           id="path1013" />
        <path
           style="fill:none;stroke:#000000;stroke-width:0.951218;stroke-linecap:butt;stroke-linejoin:miter;stroke-miterlimit:4;stroke-dasharray:none;stroke-opacity:1"
           d="m 47.625,87.3125 v 31.75"
           id="path1015" />
        <path
           style="fill:none;stroke:#000000;stroke-width:0.951218;stroke-linecap:butt;stroke-linejoin:miter;stroke-miterlimit:4;stroke-dasharray:none;stroke-opacity:1"
           d="m 50.270833,87.3125 v 31.75"
           id="path1017" />
        <path
           style="fill:none;stroke:#000000;stroke-width:0.951218;stroke-linecap:butt;stroke-linejoin:miter;stroke-miterlimit:4;stroke-dasharray:none;stroke-opacity:1"
           d="m 52.916667,87.3125 v 31.75"
           id="path1019" />
        <path
           style="fill:none;stroke:#000000;stroke-width:0.951218;stroke-linecap:butt;stroke-linejoin:miter;stroke-miterlimit:4;stroke-dasharray:none;stroke-opacity:1"
           d="m 55.5625,87.3125 v 31.75"
           id="path1021" />
        <path
           style="fill:none;stroke:#000000;stroke-width:0.951218;stroke-linecap:butt;stroke-linejoin:miter;stroke-miterlimit:4;stroke-dasharray:none;stroke-opacity:1"
           d="m 58.208333,87.3125 v 31.75"
           id="path1023" />
        <path
           style="fill:none;stroke:#000000;stroke-width:0.951218;stroke-linecap:butt;stroke-linejoin:miter;stroke-miterlimit:4;stroke-dasharray:none;stroke-opacity:1"
           d="m 58.208333,87.3125 v 31.75"
           id="path1025" />
        <path
           style="fill:none;stroke:#000000;stroke-width:0.951218;stroke-linecap:butt;stroke-linejoin:miter;stroke-miterlimit:4;stroke-dasharray:none;stroke-opacity:1"
           d="m 60.854167,87.3125 v 31.75"
           id="path1027" />
        <path
           style="fill:none;stroke:#000000;stroke-width:0.951218;stroke-linecap:butt;stroke-linejoin:miter;stroke-miterlimit:4;stroke-dasharray:none;stroke-opacity:1"
           d="m 63.5,87.3125 v 31.75"
           id="path1029" />
        <path
           style="fill:none;stroke:#000000;stroke-width:0.951218;stroke-linecap:butt;stroke-linejoin:miter;stroke-miterlimit:4;stroke-dasharray:none;stroke-opacity:1"
           d="m 66.145833,87.3125 v 31.75"
           id="path1031" />
        <path
           style="fill:none;stroke:#000000;stroke-width:0.951218;stroke-linecap:butt;stroke-linejoin:miter;stroke-miterlimit:4;stroke-dasharray:none;stroke-opacity:1"
           d="m 68.791667,87.3125 v 31.75"
           id="path1033" />
        <path
           style="fill:none;stroke:#000000;stroke-width:0.951218;stroke-linecap:butt;stroke-linejoin:miter;stroke-miterlimit:4;stroke-dasharray:none;stroke-opacity:1"
           d="m 71.4375,87.3125 v 31.75"
           id="path1035" />
      </g>
    </g>
    <path
       id="path1041"
       style="opacity:1;fill:#feffff;fill-opacity:1;stroke:none;stroke-width:1.97901;stroke-miterlimit:4;stroke-dasharray:none"
       d="m 10.229371,119.0625 a 7.8654275,7.8654275 0 0 1 -7.8654267,7.86543 7.8654275,7.8654275 0 0 1 -7.865428,-7.86543 7.8654275,7.8654275 0 0 1 7.865428,-7.86543 7.8654275,7.8654275 0 0 1 7.8654267,7.86543 z" />
    <g
       aria-label="MILLSTONE"
       id="text1131"
       style="font-style:normal;font-variant:normal;font-weight:normal;font-stretch:normal;font-size:10.5833px;line-height:1.25;font-family:'TeX Gyre Termes';-inkscape-font-specification:'TeX Gyre Termes';letter-spacing:0px;word-spacing:0px;fill:#000000;fill-opacity:1;stroke:none;stroke-width:0.264583">
      <path
         d="m -15.899346,148.83434 v -0.20109 c -0.772581,-0.0529 -0.920747,-0.20108 -0.920747,-0.95249 v -4.69899 c 0,-0.75141 0.137582,-0.889 0.920747,-0.9525 v -0.20108 h -2.106077 l -2.338909,5.34457 -2.444742,-5.34457 h -2.095494 v 0.20108 c 0.867831,0.0529 1.005414,0.17992 1.005414,0.9525 v 4.29682 c 0,1.09008 -0.148166,1.29116 -1.02658,1.35466 v 0.20109 h 2.487075 v -0.20109 c -0.814914,-0.0423 -0.99483,-0.28575 -0.99483,-1.35466 v -4.26507 l 2.656408,5.82082 h 0.148166 l 2.709325,-6.06424 v 4.79424 c 0,0.87841 -0.127,1.016 -0.96308,1.06891 v 0.20109 z"
         style="font-style:normal;font-variant:normal;font-weight:normal;font-stretch:normal;font-family:'TeX Gyre Termes';-inkscape-font-specification:'TeX Gyre Termes';stroke-width:0.264583"
         id="path910" />
      <path
         d="m -12.623806,148.83434 v -0.18098 c -0.78105,-0.0286 -0.93345,-0.16192 -0.93345,-0.85725 v -4.2291 c 0,-0.69532 0.13335,-0.81915 0.93345,-0.85725 v -0.18097 h -2.828925 v 0.18097 c 0.809625,0.0476 0.923925,0.1524 0.923925,0.85725 v 4.2291 c 0,0.71438 -0.123825,0.82868 -0.923925,0.85725 v 0.18098 z"
         style="font-size:9.525px"
         id="path912" />
      <path
         d="m -6.5864227,147.17699 h -0.238125 c -0.1524,0.33337 -0.276225,0.55245 -0.409575,0.70485 -0.333375,0.40005 -0.8572499,0.58102 -1.6763999,0.58102 h -0.638175 c -0.6953254,0 -0.8191504,-0.0572 -0.8191504,-0.39052 v -4.50533 c 0,-0.67627 0.13335,-0.80962 0.8858254,-0.85725 v -0.18097 h -2.6860494 v 0.18097 c 0.704849,0.0572 0.828674,0.18098 0.828674,0.85725 v 4.2291 c 0,0.67628 -0.13335,0.80963 -0.828674,0.85725 v 0.18098 h 5.1244493 z"
         style="font-size:9.525px"
         id="path914" />
      <path
         d="M -0.86666467,147.17699 H -1.1047897 c -0.1524,0.33337 -0.2762249,0.55245 -0.4095749,0.70485 -0.333375,0.40005 -0.85725,0.58102 -1.6764,0.58102 h -0.638175 c -0.6953249,0 -0.8191499,-0.0572 -0.8191499,-0.39052 v -4.50533 c 0,-0.67627 0.13335,-0.80962 0.8858249,-0.85725 v -0.18097 h -2.6860498 v 0.18097 c 0.7048499,0.0572 0.8286749,0.18098 0.8286749,0.85725 v 4.2291 c 0,0.67628 -0.13335,0.80963 -0.8286749,0.85725 v 0.18098 h 5.1244497 z"
         style="font-size:9.525px"
         id="path916" />
      <path
         d="m 4.2569305,147.08598 c 0,-0.86378 -0.5723795,-1.52982 -1.9460904,-2.27912 -1.0927245,-0.59319 -1.52981433,-1.05109 -1.52981433,-1.62347 0,-0.57238 0.43708983,-0.95744 1.08231763,-0.95744 0.4683105,0 0.9054004,0.19773 1.2696419,0.57238 0.3226139,0.33302 0.4683105,0.6036 0.6348209,1.21761 H 4.0279787 L 3.7990269,141.79927 H 3.580482 c -0.041628,0.22895 -0.1561035,0.35384 -0.3330208,0.35384 -0.104069,0 -0.2705794,-0.0416 -0.4579036,-0.12489 -0.3850554,-0.14569 -0.7597038,-0.22895 -1.1239453,-0.22895 -0.4058691,0 -0.84295892,0.16651 -1.17597974,0.43709 -0.40586911,0.33302 -0.60360022,0.78052 -0.60360022,1.3529 0,0.82214 0.45790362,1.40493 1.62347646,2.01894 0.7492968,0.40587 1.2904557,0.82214 1.5506282,1.2176 0.093662,0.1457 0.1456966,0.35384 0.1456966,0.61401 0,0.68686 -0.5203451,1.16557 -1.2800488,1.16557 -0.93662102,0 -1.58184884,-0.57238 -2.10219386,-1.84202 h -0.23935871 l 0.31220701,2.20627 h 0.22895181 c 0.0104069,-0.19774 0.1352897,-0.34343 0.29139321,-0.34343 0.1144759,0 0.29139321,0.0416 0.48912432,0.11447 0.39546222,0.15611 0.81173822,0.23936 1.22801422,0.23936 1.2072005,0 2.1230077,-0.82214 2.1230077,-1.89405 z"
         style="font-size:10.4069px"
         id="path918" />
      <path
         d="m 10.2817,144.14804 -0.05715,-1.61925 H 4.8524502 l -0.05715,1.61925 h 0.2286 c 0.2285999,-1.04775 0.4476749,-1.2192 1.5144749,-1.2192 h 0.51435 v 4.7625 c 0,0.80962 -0.104775,0.9144 -0.89535,0.96202 v 0.18098 H 8.938675 v -0.18098 c -0.78105,-0.0381 -0.9144,-0.16192 -0.9144,-0.85725 v -4.86727 h 0.51435 c 1.08585,0 1.2954,0.17145 1.514475,1.2192 z"
         style="font-size:9.525px"
         id="path920" />
      <path
         d="m 16.936333,145.71966 c 0,-0.94297 -0.276225,-1.7526 -0.8001,-2.3241 -0.600075,-0.65722 -1.400175,-1.00012 -2.314575,-1.00012 -1.819275,0 -3.114675,1.3716 -3.114675,3.28612 0,0.89535 0.3048,1.76213 0.81915,2.31458 0.55245,0.60007 1.400175,0.97155 2.238375,0.97155 1.876425,0 3.171825,-1.3335 3.171825,-3.24803 z m -1.08585,-0.01 c 0,0.56197 -0.123825,1.2192 -0.314325,1.7145 -0.08573,0.23812 -0.24765,0.47625 -0.466725,0.69532 -0.333375,0.33338 -0.762,0.50483 -1.266825,0.50483 -0.43815,0 -0.866775,-0.17145 -1.20015,-0.46673 -0.4953,-0.43815 -0.809625,-1.40017 -0.809625,-2.45745 0,-0.97155 0.2667,-1.89547 0.66675,-2.34315 0.371475,-0.40957 0.8382,-0.61912 1.362075,-0.61912 0.43815,0 0.8763,0.17145 1.2192,0.47625 0.51435,0.46672 0.809625,1.36207 0.809625,2.49555 z"
         style="font-size:9.525px"
         id="path922" />
      <path
         d="m 23.804338,142.70976 v -0.18097 h -2.238374 v 0.18097 c 0.36195,0.0286 0.4953,0.0667 0.638175,0.1524 0.1905,0.13335 0.276225,0.47625 0.276225,1.0668 v 3.20993 l -3.667125,-4.6101 h -1.628775 v 0.18097 c 0.409575,0 0.542925,0.0762 0.923925,0.52388 v 4.20052 c 0,0.98108 -0.13335,1.16205 -0.923925,1.2192 v 0.18098 h 2.238375 v -0.18098 c -0.733425,-0.0381 -0.89535,-0.25717 -0.89535,-1.2192 v -3.7338 l 4.210049,5.23875 h 0.161925 v -5.01015 c 0,-0.5715 0.09525,-0.92392 0.276225,-1.04775 0.13335,-0.0953 0.2667,-0.13335 0.62865,-0.17145 z"
         style="font-size:9.525px"
         id="path924" />
      <path
         d="m 29.633622,147.22461 h -0.2667 c -0.47625,1.0287 -0.885825,1.2573 -2.2479,1.2573 h -0.257175 c -0.4572,0 -0.8382,-0.0381 -0.923925,-0.10477 -0.05715,-0.0381 -0.0762,-0.12383 -0.0762,-0.3048 v -2.35268 h 1.46685 c 0.78105,0 0.923925,0.12383 1.04775,0.9144 h 0.219075 v -2.2098 h -0.219075 c -0.123825,0.78105 -0.276225,0.90488 -1.04775,0.90488 h -1.46685 v -2.11455 c 0,-0.2667 0.05715,-0.32385 0.314325,-0.32385 h 1.285875 c 1.076325,0 1.285875,0.14287 1.4478,1.00012 h 0.238125 l -0.02858,-1.36207 h -5.057775 v 0.18097 c 0.70485,0.0572 0.828675,0.18098 0.828675,0.85725 v 4.2291 c 0,0.67628 -0.13335,0.80963 -0.828675,0.85725 v 0.18098 h 5.1435 z"
         style="font-size:9.525px"
         id="path926" />
    </g>
  </g>
</svg>
